{
  "$schema": "https://themost-framework.github.io/themost/models/2018/2/schema.json",
  "@id": "https://universis.io/schemas/DiscordAccount",
  "name": "DiscordAccount",
  "title": "DiscordAccounts",
  "hidden": true,
  "sealed": false,
  "abstract": false,
  "implements": "InstantMessageAccount",
  "version": "1.2",
  "fields": [
    {
      "@id": "http://schema.org/identifier",
      "name": "identifier",
      "title": "identifier",
      "description": "The identifier property represents any kind of identifier for an object.",
      "type": "Text"
    },
    {
      "@id": "http://schema.org/serviceProvider",
      "name": "serviceProvider",
      "type": "Text",
      "size": 36,
      "nullable": false,
      "editable": false,
      "readonly": true,
      "calculation": "javascript:return 'discord';"
    }
  ],
  "constraints": [
    {
      "type": "unique",
      "fields": [
        "account"
      ]
    }
  ],
  "privileges": [
    {
      "mask": 15,
      "type": "global"
    },
    {
      "mask": 15,
      "type": "global",
      "account": "Administrators"
    },
    {
      "mask": 1,
      "type": "self",
      "filter": "account eq me()"
    }
  ]
}